module github.com/tunnels-is/nicelandvpn-desktop

go 1.19

require (
	github.com/charmbracelet/bubbletea v0.24.2
	github.com/go-ping/ping v1.1.0
	github.com/google/gopacket v1.1.19
	github.com/songgao/water v0.0.0-20200317203138-2b4b6d7c09d8
	github.com/wailsapp/wails/v2 v2.5.1
	github.com/xlzd/gotp v0.1.0
	go.mongodb.org/mongo-driver v1.12.0
	golang.org/x/crypto v0.11.0
	golang.org/x/sys v0.10.0
)

require (
	github.com/aymanbagabas/go-osc52/v2 v2.0.1 // indirect
	github.com/bep/debounce v1.2.1 // indirect
	github.com/containerd/console v1.0.4-0.20230313162750-1ae8d489ac81 // indirect
	github.com/go-ole/go-ole v1.2.6 // indirect
	github.com/google/uuid v1.2.0 // indirect
	github.com/jchv/go-winloader v0.0.0-20210711035445-715c2860da7e // indirect
	github.com/labstack/echo/v4 v4.9.0 // indirect
	github.com/labstack/gommon v0.4.0 // indirect
	github.com/leaanthony/go-ansi-parser v1.0.1 // indirect
	github.com/leaanthony/gosod v1.0.3 // indirect
	github.com/leaanthony/slicer v1.5.0 // indirect
	github.com/lucasb-eyer/go-colorful v1.2.0 // indirect
	github.com/mattn/go-colorable v0.1.13 // indirect
	github.com/mattn/go-isatty v0.0.19 // indirect
	github.com/mattn/go-localereader v0.0.1 // indirect
	github.com/mattn/go-runewidth v0.0.14 // indirect
	github.com/muesli/ansi v0.0.0-20211018074035-2e021307bc4b // indirect
	github.com/muesli/cancelreader v0.2.2 // indirect
	github.com/muesli/reflow v0.3.0 // indirect
	github.com/muesli/termenv v0.15.1 // indirect
	github.com/pkg/browser v0.0.0-20210706143420-7d21f8c997e2 // indirect
	github.com/pkg/errors v0.9.1 // indirect
	github.com/rivo/uniseg v0.2.0 // indirect
	github.com/samber/lo v1.27.1 // indirect
	github.com/tkrajina/go-reflector v0.5.5 // indirect
	github.com/valyala/bytebufferpool v1.0.0 // indirect
	github.com/valyala/fasttemplate v1.2.2 // indirect
	github.com/wailsapp/mimetype v1.4.1 // indirect
	golang.org/x/exp v0.0.0-20220303212507-bbda1eaf7a17 // indirect
	golang.org/x/net v0.12.0 // indirect
	golang.org/x/sync v0.1.0 // indirect
	golang.org/x/term v0.10.0 // indirect
	golang.org/x/text v0.11.0 // indirect
)
